Instance,Best,Worst,Mean,Standard Deviation
DD_Ta051,87021,101524,91998.5,4980.57
DD_Ta052,98254,114777,107520.2,5322.36
DD_Ta053,108723,131837,119924.3,6476.1
DD_Ta054,102680,125811,113552.9,6050.68
DD_Ta055,73943,89052,83941.6,4526.52
DD_Ta056,70778,83203,77105.4,3711.56
DD_Ta057,90580,105684,97262.6,3745.11
DD_Ta058,85556,100030,94362.3,4614.3
DD_Ta059,81253,93012,87098.1,3634.75
DD_Ta060,146394,171758,161076.4,6510.49
DD_Ta081,954686,1000331,977324.8,15415.72
DD_Ta082,859666,885187,874631.5,8799.99
DD_Ta083,1068515,1107790,1088825.4,11918.29
DD_Ta084,1138753,1192668,1169480.2,17067.92
DD_Ta085,1062634,1103614,1086467.8,12875.98
DD_Ta086,1060223,1111297,1085834.9,14562.12
DD_Ta087,895045,948290,930287.2,14193.37
DD_Ta088,1015562,1060664,1033990.0,15539.51
DD_Ta089,1099690,1165682,1135472.3,20976.05
DD_Ta090,1040605,1094265,1069759.5,13958.41
