Instance,Best,Worst,Mean,Standard Deviation
DD_Ta051,52055,69126,57957.6,5593.65
DD_Ta052,60866,87126,71461.6,7596.52
DD_Ta053,61368,96951,78075.9,10656.77
DD_Ta054,59899,97386,82128.6,12055.14
DD_Ta055,32623,50847,42450.2,5529.04
DD_Ta056,35330,52191,42972.2,4385.97
DD_Ta057,47534,76405,59613.4,9161.5
DD_Ta058,57207,71614,63685.1,4438.89
DD_Ta059,52033,65652,55737.5,4378.76
DD_Ta060,117216,136835,126770.8,6616.82
DD_Ta081,900036,969244,937076.2,19061.01
DD_Ta082,766361,843444,820495.1,20613.32
DD_Ta083,991420,1022685,1006606.8,10397.26
DD_Ta084,1089303,1203054,1163774.3,32055.07
DD_Ta085,1005153,1126880,1068502.2,38285.55
DD_Ta086,1042539,1154894,1084504.4,31199.67
DD_Ta087,873978,965321,919945.8,24146.59
DD_Ta088,991322,1035319,1014244.6,13436.18
DD_Ta089,1088799,1196802,1125191.4,28979.65
DD_Ta090,1001944,1076230,1048651.0,22784.68
