Instance,Best,Worst,Mean,Standard Deviation
DD_Ta051,87907,100604,95360.9,3848.92
DD_Ta052,104456,120184,113393.2,4667.03
DD_Ta053,118469,128845,124831.4,3173.97
DD_Ta054,107279,125245,118217.5,4650.55
DD_Ta055,78490,88584,83573.4,3434.96
DD_Ta056,70824,83470,77906.9,3127.17
DD_Ta057,98918,109580,103799.5,3203.41
DD_Ta058,95524,106871,101824.2,3765.63
DD_Ta059,83349,95344,91276.7,3316.26
DD_Ta060,169210,178246,171876.0,3028.92
DD_Ta081,958138,989327,977431.5,9879.64
DD_Ta082,844413,892954,867823.8,14410.92
DD_Ta083,1059775,1105889,1082636.9,14140.42
DD_Ta084,1171783,1213314,1195433.7,13814.8
DD_Ta085,1082410,1103741,1093598.7,8484.04
DD_Ta086,1092469,1121858,1108697.2,9183.23
DD_Ta087,926469,949970,938254.1,7635.2
DD_Ta088,1043175,1067384,1053073.5,7998.79
DD_Ta089,1137683,1160289,1148153.1,6890.61
DD_Ta090,1060481,1094971,1079479.6,12259.86
